starter\pages\HomePage.class
starter\pages\OrangeHRMHomePage.class
starter\pages\Dashboard.class
starter\CucumberTestSuite.class
starter\stepdefinitions\LoginToApplication.class
starter\pages\OrangeHRMDashboardPage.class
